Quartus Files/16x4 SRAM_ONLYFORPINS/simulation/qsim/Chen_Kevin_16x4SRAM.msim.vcd
$comment
	File created using the following command:
		vcd file Chen_Kevin_16x4SRAM.msim.vcd -direction
$end
$date
	Fri Mar 01 22:38:55 2019
$end
$version
	ModelSim Version 10.1d
$end
$timescale
	1ps
$end
$scope module Chen_Kevin_16x4SRAM_vlg_vec_tst $end
$var reg 4 ! Chen_Kevin_address [3:0] $end
$var reg 1 " Chen_Kevin_CS $end
$var reg 4 # Chen_Kevin_datain [3:0] $end
$var reg 1 $ Chen_Kevin_OE $end
$var reg 1 % Chen_Kevin_WE $end
$var wire 1 & Chen_Kevin_out [3] $end
$var wire 1 ' Chen_Kevin_out [2] $end
$var wire 1 ( Chen_Kevin_out [1] $end
$var wire 1 ) Chen_Kevin_out [0] $end
$var wire 1 * sampler $end
$scope module i1 $end
$var wire 1 + gnd $end
$var wire 1 , vcc $end
$var wire 1 - unknown $end
$var tri1 1 . devclrn $end
$var tri1 1 / devpor $end
$var tri1 1 0 devoe $end
$var wire 1 1 inst4|inst15|inst4~2_combout $end
$var wire 1 2 inst3|inst15|inst4~2_combout $end
$var wire 1 3 inst2|inst15|inst4~2_combout $end
$var wire 1 4 inst1|inst2|inst4~0_combout $end
$var wire 1 5 inst1|inst15|inst4~4_combout $end
$var wire 1 6 inst4|inst2|inst1|inst1~2_combout $end
$var wire 1 7 inst4|inst3|inst1|inst1~2_combout $end
$var wire 1 8 inst4|inst4|inst1|inst1~1_combout $end
$var wire 1 9 inst4|inst4|inst1|inst1~2_combout $end
$var wire 1 : inst4|inst10|inst1|inst1~2_combout $end
$var wire 1 ; inst4|inst11|inst1|inst1~2_combout $end
$var wire 1 < inst4|inst13|inst1|inst1~1_combout $end
$var wire 1 = inst4|inst13|inst1|inst1~2_combout $end
$var wire 1 > inst3|inst1|inst1|inst1~1_combout $end
$var wire 1 ? inst3|inst3|inst1|inst1~1_combout $end
$var wire 1 @ inst3|inst4|inst1|inst1~1_combout $end
$var wire 1 A inst3|inst5|inst1|inst1~1_combout $end
$var wire 1 B inst3|inst9|inst1|inst1~1_combout $end
$var wire 1 C inst3|inst8|inst1|inst1~1_combout $end
$var wire 1 D inst3|inst13|inst1|inst1~1_combout $end
$var wire 1 E inst2|inst1|inst1|inst1~1_combout $end
$var wire 1 F inst2|inst3|inst1|inst1~1_combout $end
$var wire 1 G inst2|inst4|inst1|inst1~1_combout $end
$var wire 1 H inst2|inst5|inst1|inst1~1_combout $end
$var wire 1 I inst2|inst9|inst1|inst1~1_combout $end
$var wire 1 J inst2|inst13|inst1|inst1~1_combout $end
$var wire 1 K inst1|inst2|inst1|inst1~1_combout $end
$var wire 1 L inst1|inst4|inst1|inst1~1_combout $end
$var wire 1 M inst1|inst7|inst1|inst1~1_combout $end
$var wire 1 N inst1|inst8|inst1|inst1~1_combout $end
$var wire 1 O inst1|inst9|inst1|inst1~1_combout $end
$var wire 1 P inst1|inst13|inst1|inst1~1_combout $end
$var wire 1 Q inst4|inst2|inst|inst1~1_combout $end
$var wire 1 R inst4|inst3|inst|inst1~1_combout $end
$var wire 1 S inst4|inst4|inst|inst1~1_combout $end
$var wire 1 T inst4|inst10|inst|inst1~1_combout $end
$var wire 1 U inst4|inst11|inst|inst1~1_combout $end
$var wire 1 V inst4|inst13|inst|inst1~1_combout $end
$var wire 1 W inst3|inst1|inst|inst1~1_combout $end
$var wire 1 X inst3|inst3|inst|inst1~1_combout $end
$var wire 1 Y inst3|inst4|inst|inst1~1_combout $end
$var wire 1 Z inst3|inst5|inst|inst1~1_combout $end
$var wire 1 [ inst3|inst9|inst|inst1~1_combout $end
$var wire 1 \ inst3|inst8|inst|inst1~1_combout $end
$var wire 1 ] inst3|inst13|inst|inst1~1_combout $end
$var wire 1 ^ inst2|inst1|inst|inst1~1_combout $end
$var wire 1 _ inst2|inst3|inst|inst1~1_combout $end
$var wire 1 ` inst2|inst4|inst|inst1~1_combout $end
$var wire 1 a inst2|inst5|inst|inst1~1_combout $end
$var wire 1 b inst2|inst9|inst|inst1~1_combout $end
$var wire 1 c inst2|inst13|inst|inst1~1_combout $end
$var wire 1 d inst1|inst2|inst|inst1~1_combout $end
$var wire 1 e inst1|inst4|inst|inst1~1_combout $end
$var wire 1 f inst1|inst7|inst|inst1~1_combout $end
$var wire 1 g inst1|inst8|inst|inst1~1_combout $end
$var wire 1 h inst1|inst9|inst|inst1~1_combout $end
$var wire 1 i inst1|inst13|inst|inst1~1_combout $end
$var wire 1 j inst4|inst13|inst1|inst1~1clkctrl_outclk $end
$var wire 1 k inst4|inst4|inst1|inst1~1clkctrl_outclk $end
$var wire 1 l inst|Mux15~10_combout $end
$var wire 1 m Chen_Kevin_WE~combout $end
$var wire 1 n Chen_Kevin_CS~combout $end
$var wire 1 o inst4|inst9|inst1|inst1~1_combout $end
$var wire 1 p inst4|inst9|inst1|inst1~1clkctrl_outclk $end
$var wire 1 q inst4|inst9|inst|inst1~1_combout $end
$var wire 1 r inst4|inst9|inst1|inst1~2_combout $end
$var wire 1 s inst4|inst9|inst4~0_combout $end
$var wire 1 t inst|Mux15~11_combout $end
$var wire 1 u inst|Mux15~8_combout $end
$var wire 1 v inst4|inst7|inst1|inst1~1_combout $end
$var wire 1 w inst4|inst7|inst1|inst1~1clkctrl_outclk $end
$var wire 1 x inst4|inst7|inst|inst1~1_combout $end
$var wire 1 y inst4|inst7|inst1|inst1~2_combout $end
$var wire 1 z inst|Mux15~9_combout $end
$var wire 1 { inst4|inst8|inst1|inst1~1_combout $end
$var wire 1 | inst4|inst8|inst1|inst1~1clkctrl_outclk $end
$var wire 1 } inst4|inst8|inst|inst1~1_combout $end
$var wire 1 ~ inst4|inst8|inst1|inst1~2_combout $end
$var wire 1 !! inst4|inst15|inst4~5_combout $end
$var wire 1 "! inst4|inst15|inst4~6_combout $end
$var wire 1 #! inst|Mux15~13_combout $end
$var wire 1 $! inst4|inst12|inst1|inst1~1_combout $end
$var wire 1 %! inst4|inst12|inst1|inst1~1clkctrl_outclk $end
$var wire 1 &! inst4|inst12|inst|inst1~1_combout $end
$var wire 1 '! inst4|inst12|inst1|inst1~2_combout $end
$var wire 1 (! inst|Mux15~12_combout $end
$var wire 1 )! inst4|inst15|inst4~7_combout $end
$var wire 1 *! inst|Mux15~14_combout $end
$var wire 1 +! inst|Mux15~15_combout $end
$var wire 1 ,! inst4|inst14|inst1|inst1~1_combout $end
$var wire 1 -! inst4|inst14|inst1|inst1~1clkctrl_outclk $end
$var wire 1 .! inst4|inst14|inst|inst1~1_combout $end
$var wire 1 /! inst4|inst14|inst1|inst1~2_combout $end
$var wire 1 0! inst4|inst15|inst4~8_combout $end
$var wire 1 1! inst|Mux15~2_combout $end
$var wire 1 2! inst4|inst1|inst1|inst1~1_combout $end
$var wire 1 3! inst4|inst1|inst1|inst1~1clkctrl_outclk $end
$var wire 1 4! inst4|inst1|inst|inst1~1_combout $end
$var wire 1 5! inst4|inst1|inst1|inst1~2_combout $end
$var wire 1 6! inst|Mux15~3_combout $end
$var wire 1 7! inst4|inst15|inst4~1_combout $end
$var wire 1 8! inst|Mux15~0_combout $end
$var wire 1 9! inst4|inst15|inst1|inst1~1_combout $end
$var wire 1 :! inst4|inst15|inst1|inst1~1clkctrl_outclk $end
$var wire 1 ;! inst4|inst15|inst|inst1~1_combout $end
$var wire 1 <! inst4|inst15|inst1|inst1~2_combout $end
$var wire 1 =! inst|Mux15~1_combout $end
$var wire 1 >! inst4|inst|inst1|inst1~1_combout $end
$var wire 1 ?! inst4|inst|inst1|inst1~1clkctrl_outclk $end
$var wire 1 @! inst4|inst|inst|inst1~1_combout $end
$var wire 1 A! inst4|inst|inst1|inst1~2_combout $end
$var wire 1 B! inst4|inst15|inst4~0_combout $end
$var wire 1 C! inst|Mux15~6_combout $end
$var wire 1 D! inst4|inst5|inst1|inst1~1_combout $end
$var wire 1 E! inst4|inst5|inst1|inst1~1clkctrl_outclk $end
$var wire 1 F! inst4|inst5|inst|inst1~1_combout $end
$var wire 1 G! inst4|inst5|inst1|inst1~2_combout $end
$var wire 1 H! inst4|inst6|inst1|inst1~1_combout $end
$var wire 1 I! inst4|inst6|inst1|inst1~1clkctrl_outclk $end
$var wire 1 J! inst4|inst6|inst|inst1~1_combout $end
$var wire 1 K! inst4|inst6|inst1|inst1~2_combout $end
$var wire 1 L! inst|Mux15~7_combout $end
$var wire 1 M! inst4|inst15|inst4~3_combout $end
$var wire 1 N! inst4|inst15|inst4~4_combout $end
$var wire 1 O! inst4|inst15|inst4~9_combout $end
$var wire 1 P! Chen_Kevin_OE~combout $end
$var wire 1 Q! inst4|inst15|inst4~10_combout $end
$var wire 1 R! inst3|inst14|inst|inst1~1_combout $end
$var wire 1 S! inst3|inst14|inst1|inst1~1_combout $end
$var wire 1 T! inst3|inst15|inst4~8_combout $end
$var wire 1 U! inst4|inst2|inst1|inst1~1_combout $end
$var wire 1 V! inst4|inst2|inst1|inst1~1clkctrl_outclk $end
$var wire 1 W! inst3|inst2|inst|inst1~1_combout $end
$var wire 1 X! inst3|inst2|inst1|inst1~1_combout $end
$var wire 1 Y! inst3|inst15|inst4~1_combout $end
$var wire 1 Z! inst3|inst6|inst|inst1~1_combout $end
$var wire 1 [! inst3|inst6|inst1|inst1~1_combout $end
$var wire 1 \! inst3|inst15|inst4~3_combout $end
$var wire 1 ]! inst3|inst15|inst|inst1~1_combout $end
$var wire 1 ^! inst3|inst15|inst1|inst1~1_combout $end
$var wire 1 _! inst3|inst|inst|inst1~1_combout $end
$var wire 1 `! inst3|inst|inst1|inst1~1_combout $end
$var wire 1 a! inst3|inst15|inst4~0_combout $end
$var wire 1 b! inst3|inst15|inst4~4_combout $end
$var wire 1 c! inst4|inst10|inst1|inst1~1_combout $end
$var wire 1 d! inst4|inst10|inst1|inst1~1clkctrl_outclk $end
$var wire 1 e! inst3|inst10|inst|inst1~1_combout $end
$var wire 1 f! inst3|inst10|inst1|inst1~1_combout $end
$var wire 1 g! inst3|inst15|inst4~5_combout $end
$var wire 1 h! inst3|inst7|inst|inst1~1_combout $end
$var wire 1 i! inst3|inst7|inst1|inst1~1_combout $end
$var wire 1 j! inst3|inst7|inst4~0_combout $end
$var wire 1 k! inst3|inst15|inst4~6_combout $end
$var wire 1 l! inst3|inst12|inst|inst1~1_combout $end
$var wire 1 m! inst3|inst12|inst1|inst1~1_combout $end
$var wire 1 n! inst4|inst11|inst1|inst1~1_combout $end
$var wire 1 o! inst4|inst11|inst1|inst1~1clkctrl_outclk $end
$var wire 1 p! inst3|inst11|inst|inst1~1_combout $end
$var wire 1 q! inst3|inst11|inst1|inst1~1_combout $end
$var wire 1 r! inst3|inst15|inst4~7_combout $end
$var wire 1 s! inst3|inst15|inst4~9_combout $end
$var wire 1 t! inst2|inst7|inst|inst1~1_combout $end
$var wire 1 u! inst2|inst7|inst1|inst1~1_combout $end
$var wire 1 v! inst2|inst8|inst|inst1~1_combout $end
$var wire 1 w! inst2|inst8|inst1|inst1~1_combout $end
$var wire 1 x! inst2|inst15|inst4~5_combout $end
$var wire 1 y! inst2|inst14|inst|inst1~1_combout $end
$var wire 1 z! inst2|inst14|inst1|inst1~1_combout $end
$var wire 1 {! inst2|inst15|inst4~7_combout $end
$var wire 1 |! inst2|inst12|inst|inst1~1_combout $end
$var wire 1 }! inst2|inst12|inst1|inst1~1_combout $end
$var wire 1 ~! inst2|inst11|inst|inst1~1_combout $end
$var wire 1 !" inst2|inst11|inst1|inst1~1_combout $end
$var wire 1 "" inst2|inst11|inst4~0_combout $end
$var wire 1 #" inst2|inst15|inst4~8_combout $end
$var wire 1 $" inst2|inst2|inst|inst1~1_combout $end
$var wire 1 %" inst2|inst2|inst1|inst1~1_combout $end
$var wire 1 &" inst2|inst15|inst4~1_combout $end
$var wire 1 '" inst2|inst15|inst|inst1~1_combout $end
$var wire 1 (" inst2|inst15|inst1|inst1~1_combout $end
$var wire 1 )" inst2|inst|inst|inst1~1_combout $end
$var wire 1 *" inst2|inst|inst1|inst1~1_combout $end
$var wire 1 +" inst2|inst15|inst4~0_combout $end
$var wire 1 ," inst2|inst6|inst|inst1~1_combout $end
$var wire 1 -" inst2|inst6|inst1|inst1~1_combout $end
$var wire 1 ." inst2|inst15|inst4~3_combout $end
$var wire 1 /" inst2|inst15|inst4~4_combout $end
$var wire 1 0" inst2|inst10|inst|inst1~1_combout $end
$var wire 1 1" inst2|inst10|inst1|inst1~1_combout $end
$var wire 1 2" inst2|inst15|inst4~6_combout $end
$var wire 1 3" inst2|inst15|inst4~9_combout $end
$var wire 1 4" inst1|inst15|inst|inst1~1_combout $end
$var wire 1 5" inst1|inst15|inst1|inst1~1_combout $end
$var wire 1 6" inst1|inst|inst|inst1~1_combout $end
$var wire 1 7" inst1|inst|inst1|inst1~1_combout $end
$var wire 1 8" inst1|inst15|inst4~0_combout $end
$var wire 1 9" inst1|inst1|inst|inst1~1_combout $end
$var wire 1 :" inst1|inst1|inst1|inst1~1_combout $end
$var wire 1 ;" inst1|inst15|inst4~1_combout $end
$var wire 1 <" inst|Mux15~4_combout $end
$var wire 1 =" inst|Mux15~5_combout $end
$var wire 1 >" inst4|inst3|inst1|inst1~1_combout $end
$var wire 1 ?" inst4|inst3|inst1|inst1~1clkctrl_outclk $end
$var wire 1 @" inst1|inst3|inst|inst1~1_combout $end
$var wire 1 A" inst1|inst3|inst1|inst1~1_combout $end
$var wire 1 B" inst1|inst15|inst4~2_combout $end
$var wire 1 C" inst1|inst6|inst|inst1~1_combout $end
$var wire 1 D" inst1|inst6|inst1|inst1~1_combout $end
$var wire 1 E" inst1|inst5|inst|inst1~1_combout $end
$var wire 1 F" inst1|inst5|inst1|inst1~1_combout $end
$var wire 1 G" inst1|inst15|inst4~3_combout $end
$var wire 1 H" inst1|inst12|inst|inst1~1_combout $end
$var wire 1 I" inst1|inst12|inst1|inst1~1_combout $end
$var wire 1 J" inst1|inst11|inst|inst1~1_combout $end
$var wire 1 K" inst1|inst11|inst1|inst1~1_combout $end
$var wire 1 L" inst1|inst15|inst4~6_combout $end
$var wire 1 M" inst1|inst10|inst|inst1~1_combout $end
$var wire 1 N" inst1|inst10|inst1|inst1~1_combout $end
$var wire 1 O" inst1|inst15|inst4~5_combout $end
$var wire 1 P" inst1|inst14|inst|inst1~1_combout $end
$var wire 1 Q" inst1|inst14|inst1|inst1~1_combout $end
$var wire 1 R" inst1|inst15|inst4~7_combout $end
$var wire 1 S" inst1|inst15|inst4~8_combout $end
$var wire 1 T" inst1|inst15|inst4~9_combout $end
$var wire 1 U" Chen_Kevin_datain~combout [3] $end
$var wire 1 V" Chen_Kevin_datain~combout [2] $end
$var wire 1 W" Chen_Kevin_datain~combout [1] $end
$var wire 1 X" Chen_Kevin_datain~combout [0] $end
$var wire 1 Y" Chen_Kevin_address~combout [3] $end
$var wire 1 Z" Chen_Kevin_address~combout [2] $end
$var wire 1 [" Chen_Kevin_address~combout [1] $end
$var wire 1 \" Chen_Kevin_address~combout [0] $end
$upscope $end
$upscope $end
$enddefinitions $end
#0
$dumpvars
b0 !
0"
b0 #
0$
0%
z)
z(
z'
z&
x*
0+
1,
x-
1.
1/
10
11
12
13
14
15
x6
x7
08
x9
x:
x;
0<
x=
x>
x?
x@
xA
xB
xC
xD
xE
xF
xG
xH
xI
xJ
xK
xL
xM
xN
xO
xP
1Q
1R
1S
1T
1U
1V
1W
1X
1Y
1Z
1[
1\
1]
1^
1_
1`
1a
1b
1c
1d
1e
1f
1g
1h
1i
0j
0k
0l
0m
0n
0o
0p
1q
xr
1s
0t
0u
0v
0w
1x
xy
0z
0{
0|
1}
x~
1!!
1"!
0#!
0$!
0%!
1&!
x'!
0(!
1)!
0*!
0+!
0,!
0-!
1.!
x/!
10!
01!
02!
03!
14!
x5!
06!
17!
18!
09!
0:!
1;!
x<!
0=!
0>!
0?!
1@!
xA!
xB!
0C!
0D!
0E!
1F!
xG!
0H!
0I!
1J!
xK!
0L!
1M!
xN!
xO!
0P!
0Q!
1R!
xS!
1T!
0U!
0V!
1W!
xX!
1Y!
1Z!
x[!
1\!
1]!
x^!
1_!
x`!
xa!
xb!
0c!
0d!
1e!
xf!
1g!
1h!
xi!
1j!
1k!
1l!
xm!
0n!
0o!
1p!
xq!
1r!
xs!
1t!
xu!
1v!
xw!
1x!
1y!
xz!
1{!
1|!
x}!
1~!
x!"
1""
1#"
1$"
x%"
1&"
1'"
x("
1)"
x*"
x+"
1,"
x-"
1."
x/"
10"
x1"
12"
x3"
14"
x5"
16"
x7"
x8"
19"
x:"
x;"
0<"
0="
0>"
0?"
1@"
xA"
1B"
1C"
xD"
1E"
xF"
1G"
1H"
xI"
1J"
xK"
1L"
1M"
xN"
1O"
1P"
xQ"
1R"
1S"
xT"
0X"
0W"
0V"
0U"
0\"
0["
0Z"
0Y"
$end
#10000
b1 #
1X"
0*
0P"
0M"
0J"
0H"
0E"
0C"
0@"
09"
06"
04"
0i
0h
0g
0f
0e
0d
#20000
b11 #
b1 !
b10 #
1\"
0X"
1W"
1*
08!
1+!
1P"
1M"
1J"
1H"
1E"
1C"
1@"
19"
16"
14"
1i
1h
1g
1f
1e
1d
00"
0,"
0)"
0'"
0$"
0~!
0|!
0y!
0v!
0t!
0c
0b
0a
0`
0_
0^
18"
1+"
1a!
1B!
xR"
x{!
xT!
x0!
1;"
1/"
1b!
1N!
xS"
x#"
#30000
b11 #
1X"
0*
0P"
0M"
0J"
0H"
0E"
0C"
0@"
09"
06"
04"
0i
0h
0g
0f
0e
0d
#40000
b111 #
b11 !
1$
b101 #
b10 !
b100 #
0\"
1["
0X"
0W"
1V"
1P!
1*
0+!
1*!
1P"
1M"
1J"
1H"
1E"
1C"
1@"
19"
16"
14"
1i
1h
1g
1f
1e
1d
10"
1,"
1)"
1'"
1$"
1~!
1|!
1y!
1v!
1t!
1c
1b
1a
1`
1_
1^
0p!
0l!
0h!
0e!
0_!
0]!
0Z!
0W!
0R!
0]
0\
0[
0Z
0Y
0X
0W
#50000
b101 #
1X"
0*
0P"
0M"
0J"
0H"
0E"
0C"
0@"
09"
06"
04"
0i
0h
0g
0f
0e
0d
#60000
b111 #
b11 !
b110 #
1\"
0X"
1W"
1*
0*!
1#!
1P"
1M"
1J"
1H"
1E"
1C"
1@"
19"
16"
14"
1i
1h
1g
1f
1e
1d
00"
0,"
0)"
0'"
0$"
0~!
0|!
0y!
0v!
0t!
0c
0b
0a
0`
0_
0^
1R"
1{!
1T!
10!
xL"
xr!
x)!
#70000
b111 #
1X"
0*
0P"
0M"
0J"
0H"
0E"
0C"
0@"
09"
06"
04"
0i
0h
0g
0f
0e
0d
#80000
b1111 #
b111 !
1"
b1011 #
b101 !
0$
b1001 #
b100 !
b1000 #
0\"
0["
1Z"
0X"
0W"
0V"
1U"
1n
0P!
1*
1(!
0#!
1P"
1M"
1J"
1H"
1E"
1C"
1@"
19"
16"
14"
1i
1h
1g
1f
1e
1d
10"
1,"
1)"
1'"
1$"
1~!
1|!
1y!
1v!
1t!
1c
1b
1a
1`
1_
1^
1p!
1l!
1h!
1e!
1_!
1]!
1Z!
1W!
1R!
1]
1\
1[
1Z
1Y
1X
1W
0J!
0F!
0@!
0;!
04!
0.!
0&!
0}
0x
0q
0V
0U
0T
0S
0R
0Q
x""
1#"
x#"
13"
x3"
#90000
b1001 #
1X"
0*
0P"
0M"
0J"
0H"
0E"
0C"
0@"
09"
06"
04"
0i
0h
0g
0f
0e
0d
#100000
b1011 #
b101 !
b1010 #
1\"
0X"
1W"
1*
0(!
1t
1P"
1M"
1J"
1H"
1E"
1C"
1@"
19"
16"
14"
1i
1h
1g
1f
1e
1d
00"
0,"
0)"
0'"
0$"
0~!
0|!
0y!
0v!
0t!
0c
0b
0a
0`
0_
0^
1L"
1""
1r!
1)!
xO"
x2"
xg!
x"!
1#"
1s!
xk!
xs!
#110000
b1011 #
1X"
0*
0P"
0M"
0J"
0H"
0E"
0C"
0@"
09"
06"
04"
0i
0h
0g
0f
0e
0d
#120000
b1111 #
b111 !
1$
b1101 #
b110 !
b1100 #
0\"
1["
0X"
0W"
1V"
1P!
1*
0t
1l
1P"
1M"
1J"
1H"
1E"
1C"
1@"
19"
16"
14"
1i
1h
1g
1f
1e
1d
10"
1,"
1)"
1'"
1$"
1~!
1|!
1y!
1v!
1t!
1c
1b
1a
1`
1_
1^
0p!
0l!
0h!
0e!
0_!
0]!
0Z!
0W!
0R!
0]
0\
0[
0Z
0Y
0X
0W
1Q!
1"!
xs
x)
x(
x'
x&
1O!
x"!
xO!
1&
x&
#130000
b1101 #
1X"
0*
0P"
0M"
0J"
0H"
0E"
0C"
0@"
09"
06"
04"
0i
0h
0g
0f
0e
0d
#140000
b1111 #
b111 !
b1110 #
1\"
0X"
1W"
1*
1z
0l
1P"
1M"
1J"
1H"
1E"
1C"
1@"
19"
16"
14"
1i
1h
1g
1f
1e
1d
00"
0,"
0)"
0'"
0$"
0~!
0|!
0y!
0v!
0t!
0c
0b
0a
0`
0_
0^
xx!
x!!
x5
1O"
12"
1g!
1s
#150000
b1111 #
1X"
0*
0P"
0M"
0J"
0H"
0E"
0C"
0@"
09"
06"
04"
0i
0h
0g
0f
0e
0d
#160000
b1111 !
1%
b111 #
b1011 !
0"
b11 #
b1001 !
0$
b1 #
b1000 !
b0 #
1m
0X"
0W"
0V"
0U"
0\"
0["
0Z"
1Y"
0n
0P!
1*
1P"
1M"
1J"
1H"
1E"
1C"
1@"
19"
16"
14"
1i
1h
1g
1f
1e
1d
10"
1,"
1)"
1'"
1$"
1~!
1|!
1y!
1v!
1t!
1c
1b
1a
1`
1_
1^
1p!
1l!
1h!
1e!
1_!
1]!
1Z!
1W!
1R!
1]
1\
1[
1Z
1Y
1X
1W
1J!
1F!
1@!
1;!
14!
1.!
1&!
1}
1x
1q
1V
1U
1T
1S
1R
1Q
0z
1u
0Q!
1k!
xj!
z)
z(
z'
z&
1s!
xk!
xs!
#170000
b1 #
1X"
0*
0P"
0M"
0J"
0H"
0E"
0C"
0@"
09"
06"
04"
0i
0h
0g
0f
0e
0d
#180000
b11 #
b1001 !
b10 #
1\"
0X"
1W"
1*
1L!
0u
1P"
1M"
1J"
1H"
1E"
1C"
1@"
19"
16"
14"
1i
1h
1g
1f
1e
1d
00"
0,"
0)"
0'"
0$"
0~!
0|!
0y!
0v!
0t!
0c
0b
0a
0`
0_
0^
xG"
x."
x\!
xM!
1x!
1j!
1!!
15
x/"
xb!
xN!
13"
1k!
1"!
1S"
x3"
#190000
b11 #
1X"
0*
0P"
0M"
0J"
0H"
0E"
0C"
0@"
09"
06"
04"
0i
0h
0g
0f
0e
0d
#200000
b111 #
b1011 !
1$
b101 #
b1010 !
b100 #
0\"
1["
0X"
0W"
1V"
1P!
1*
0L!
1C!
1P"
1M"
1J"
1H"
1E"
1C"
1@"
19"
16"
14"
1i
1h
1g
1f
1e
1d
10"
1,"
1)"
1'"
1$"
1~!
1|!
1y!
1v!
1t!
1c
1b
1a
1`
1_
1^
0p!
0l!
0h!
0e!
0_!
0]!
0Z!
0W!
0R!
0]
0\
0[
0Z
0Y
0X
0W
#210000
b101 #
1X"
0*
0P"
0M"
0J"
0H"
0E"
0C"
0@"
09"
06"
04"
0i
0h
0g
0f
0e
0d
#220000
b111 #
b1011 !
b110 #
1\"
0X"
1W"
1*
1="
0C!
1P"
1M"
1J"
1H"
1E"
1C"
1@"
19"
16"
14"
1i
1h
1g
1f
1e
1d
00"
0,"
0)"
0'"
0$"
0~!
0|!
0y!
0v!
0t!
0c
0b
0a
0`
0_
0^
xB"
x3
x2
x1
1G"
1."
1\!
1M!
#230000
b111 #
1X"
0*
0P"
0M"
0J"
0H"
0E"
0C"
0@"
09"
06"
04"
0i
0h
0g
0f
0e
0d
#240000
b1111 #
b1111 !
1"
b1011 #
b1101 !
0$
b1001 #
b1100 !
b1000 #
0\"
0["
1Z"
0X"
0W"
0V"
1U"
1n
0P!
1*
0="
1<"
1P"
1M"
1J"
1H"
1E"
1C"
1@"
19"
16"
14"
1i
1h
1g
1f
1e
1d
10"
1,"
1)"
1'"
1$"
1~!
1|!
1y!
1v!
1t!
1c
1b
1a
1`
1_
1^
1p!
1l!
1h!
1e!
1_!
1]!
1Z!
1W!
1R!
1]
1\
1[
1Z
1Y
1X
1W
0J!
0F!
0@!
0;!
04!
0.!
0&!
0}
0x
0q
0V
0U
0T
0S
0R
0Q
18
1k
08
1>"
1L
1G
1@
09
1?"
0k
1A"
1F
1?
07
0B"
03
02
11
0T"
0/"
0b!
1N!
03"
0s!
1O!
#250000
b1001 #
1X"
0*
0P"
0M"
0J"
0H"
0E"
0C"
09"
06"
04"
0i
0h
0g
0f
0e
0d
#260000
b1011 #
b1101 !
b1010 #
1\"
0X"
1W"
1*
0<"
16!
1P"
1M"
1J"
1H"
1E"
1C"
19"
16"
14"
1i
1h
1g
1f
1e
1d
00"
0,"
0)"
0'"
0$"
0~!
0|!
0y!
0v!
0t!
0c
0b
0a
0`
0^
1B"
0>"
13
12
x&"
xY!
1U!
x7!
x4
1V!
0?"
1T"
x/"
xb!
xN!
x;"
0%"
1X!
1K
06
0_
x3"
xs!
xO!
xT"
1&"
0Y!
04
17!
1/"
0b!
0;"
1N!
13"
0s!
0T"
1O!
#270000
b1011 #
1X"
0*
0P"
0M"
0J"
0H"
0E"
0C"
0@"
09"
06"
04"
0i
0h
0g
0f
0e
#280000
b1111 #
b1111 !
1$
b1101 #
b1110 !
b1100 #
0\"
1["
0X"
0W"
1V"
1P!
1*
06!
11!
1P"
1M"
1J"
1H"
1E"
1C"
1@"
19"
16"
14"
1i
1h
1g
1f
1e
10"
1,"
1)"
1'"
1~!
1|!
1y!
1v!
1t!
1c
1b
1a
1`
1_
1^
0p!
0l!
0h!
0e!
0_!
0]!
0Z!
0R!
0]
0\
0[
0Z
0Y
0X
0W
1Q!
x&"
xY!
0U!
x7!
14
12!
13!
0V!
0)
1(
0'
1&
x/"
xb!
xN!
x;"
1:"
05!
1E
0>
1$"
0W!
x3"
xs!
xO!
xT"
0;"
17!
0&"
1Y!
0T"
1N!
0/"
1b!
x(
x'
x&
x)
1O!
03"
1s!
0)
1&
0(
1'
#290000
b1101 #
1X"
0*
0P"
0M"
0J"
0H"
0E"
0C"
0@"
06"
04"
0i
0h
0g
0f
0e
0d
#300000
b1111 #
b1111 !
b1110 #
1\"
0X"
1W"
1*
1=!
01!
1P"
1M"
1J"
1H"
1E"
1C"
1@"
16"
14"
1i
1h
1g
1f
1e
1d
00"
0,"
0)"
0'"
0$"
0~!
0|!
0y!
0v!
0t!
0c
0b
0a
0`
0_
x8"
x+"
xa!
xB!
1>!
1;"
1&"
02!
03!
1?!
x;"
x/"
xb!
xN!
1T"
0^
17"
0*"
0`!
0A!
xT"
x3"
xs!
xO!
08"
1+"
1a!
1B!
1)
0;"
1/"
1b!
1N!
x)
x(
x'
x&
0T"
13"
1s!
1O!
0)
1(
1'
1&
#310000
b1111 #
1X"
0*
0P"
0M"
0J"
0H"
0E"
0C"
0@"
09"
04"
0i
0h
0g
0f
0e
0d
